Video Game Analysis
…
 the long tail in the graph clearly states that there are only very few games which have total revenue greater then 75.Most probably these are the most popular game, if not so it may be an outlier.Also we have to check for the duplicacy of the data

## # A tibble: 2,775 x 2
##    Name                         count
##    <chr>                        <int>
##  1 Need for Speed: Most Wanted     12
##  2 FIFA 14                          9
##  3 LEGO Marvel Super Heroes         9
##  4 Madden NFL 07                    9
##  5 Ratatouille                      9
##  6 Angry Birds Star Wars            8
##  7 Cars                             8
##  8 FIFA 15                          8
##  9 FIFA Soccer 13                   8
## 10 Lego Batman 3: Beyond Gotham     8
## # ... with 2,765 more rows
…
